[20-Apr-2018 08:41:43 UTC] Uncaught exception: 'Exception' with message 'No route matched'
Stack trace: #0 /var/www/html/public/index.php(20): Core\Router->dispatch('asdasdasd/')
#1 {main}
Thrown in '/var/www/html/Core/Router.php' on line 119
[20-Apr-2018 08:48:22 UTC] Uncaught exception: 'Exception' with message 'No route matched.'
Stack trace: #0 /var/www/html/public/index.php(20): Core\Router->dispatch('404')
#1 {main}
Thrown in '/var/www/html/Core/Router.php' on line 119
[20-Apr-2018 08:53:38 UTC] Uncaught exception: 'Exception' with message 'No route matched.'
Stack trace: #0 /var/www/html/public/index.php(20): Core\Router->dispatch('asdasdasd/')
#1 {main}
Thrown in '/var/www/html/Core/Router.php' on line 119
[20-Apr-2018 08:53:50 UTC] Uncaught exception: 'Exception' with message 'Method $method not found in controllerApp\Controllers\Posts'
Stack trace: #0 /var/www/html/Core/Router.php(111): Core\Controller->__call('nee', Array)
#1 /var/www/html/public/index.php(20): Core\Router->dispatch('posts/nee')
#2 {main}
Thrown in '/var/www/html/Core/Controller.php' on line 38
[20-Apr-2018 09:06:37 UTC] Uncaught exception: 'Exception' with message 'Method neeAction not found in controllerApp\Controllers\Posts'
Stack trace: #0 /var/www/html/Core/Router.php(111): Core\Controller->__call('nee', Array)
#1 /var/www/html/public/index.php(20): Core\Router->dispatch('posts/nee')
#2 {main}
Thrown in '/var/www/html/Core/Controller.php' on line 38
[20-Apr-2018 09:06:46 UTC] Uncaught exception: 'Exception' with message 'No route matched.'
Stack trace: #0 /var/www/html/public/index.php(20): Core\Router->dispatch('404')
#1 {main}
Thrown in '/var/www/html/Core/Router.php' on line 119
